<svg width="14" height="15" viewBox="0 0 14 15" fill="none" xmlns="http://www.w3.org/2000/svg">
<path fill-rule="evenodd" clip-rule="evenodd" d="M13.6654 7.42448C13.6654 11.1064 10.6806 14.0911 6.9987 14.0911C3.3168 14.0911 0.332031 11.1064 0.332031 7.42448C0.332031 3.74258 3.3168 0.757812 6.9987 0.757812C10.6806 0.757812 13.6654 3.74258 13.6654 7.42448ZM6.9987 6.75781C7.36689 6.75781 7.66536 7.05629 7.66536 7.42448V10.7584C7.66536 11.1266 7.36689 11.4251 6.9987 11.4251C6.63051 11.4251 6.33203 11.1266 6.33203 10.7584V7.42448C6.33203 7.05629 6.63051 6.75781 6.9987 6.75781ZM6.9987 5.42448C7.36689 5.42448 7.66536 5.126 7.66536 4.75781C7.66536 4.38962 7.36689 4.09115 6.9987 4.09115C6.63051 4.09115 6.33203 4.38962 6.33203 4.75781C6.33203 5.126 6.63051 5.42448 6.9987 5.42448Z" fill="#33383F"/>
</svg>
