<svg width="21" height="24" viewBox="0 0 21 24" fill="none" xmlns="http://www.w3.org/2000/svg">
<path d="M16.6914 9.28103C16.6914 7.75868 16.0593 6.29869 14.934 5.22223C13.8088 4.14577 12.2827 3.54102 10.6914 3.54102C9.10011 3.54102 7.57398 4.14577 6.44877 5.22223C5.32355 6.29869 4.69141 7.75868 4.69141 9.28103C4.69141 15.9777 1.69141 17.8911 1.69141 17.8911H19.6914C19.6914 17.8911 16.6914 15.9777 16.6914 9.28103Z" stroke="#FF6600" stroke-width="2" stroke-linecap="round" stroke-linejoin="round"/>
<path d="M12.4209 21.7178C12.2451 22.0077 11.9928 22.2484 11.6892 22.4157C11.3855 22.583 11.0413 22.6711 10.6909 22.6711C10.3406 22.6711 9.99633 22.583 9.69271 22.4157C9.38909 22.2484 9.13675 22.0077 8.96094 21.7178" stroke="#FF6600" stroke-width="2" stroke-linecap="round" stroke-linejoin="round"/>
<path d="M20.1914 4.49806C20.1914 6.31469 18.6455 7.82474 16.6914 7.82474C14.7373 7.82474 13.1914 6.31469 13.1914 4.49806C13.1914 2.68143 14.7373 1.17139 16.6914 1.17139C18.6455 1.17139 20.1914 2.68143 20.1914 4.49806Z" fill="#FF6600" stroke="white"/>
</svg>
