<svg width="22" height="27" viewBox="0 0 22 27" fill="none" xmlns="http://www.w3.org/2000/svg">
<path d="M18.1429 1H3.85714C2.27919 1 1 2.27919 1 3.85714V22.4286C1 24.0065 2.27919 25.2857 3.85714 25.2857H18.1429C19.7208 25.2857 21 24.0065 21 22.4286V3.85714C21 2.27919 19.7208 1 18.1429 1Z" stroke="#4ECB71" stroke-width="2"/>
<path d="M6.71484 8.14307H15.2863M6.71484 13.8574H15.2863M6.71484 19.5716H12.4291" stroke="#4ECB71" stroke-width="2" stroke-linecap="round"/>
</svg>
